8 Cluster Analysis based on k-means – Data Mining
…
pacman::p_load("data.table", 
               "tidyverse", 
               "dplyr",
               "caret",
               "GGally",                                       # For ggpairs
               "factoextra",                                   # For fviz_dend, fviz_nbclust
               "NbClust")                                      # For NbClust

protein <- fread(".../protein.csv")                            # 데이터 불러오기

protein %>%
  as_tibble

# A tibble: 25 × 10
   country           x1    x2    x3    x4    x5    x6    x7    x8    x9
   <chr>          <dbl> <dbl> <dbl> <dbl> <dbl> <dbl> <dbl> <dbl> <dbl>
 1 Albania         10.1   1.4   0.5   8.9   0.2  42.3   0.6   5.5   1.7
 2 Austria          8.9  14     4.3  19.9   2.1  28     3.6   1.3   4.3
 3 Belgium         13.5   9.3   4.1  17.5   4.5  26.6   5.7   2.1   4  
 4 Bulgaria         7.8   6     1.6   8.3   1.2  56.7   1.1   3.7   4.2
 5 Czechoslovakia   9.7  11.4   2.8  12.5   2    34.3   5     1.1   4  
 6 Denmark         10.6  10.8   3.7  25     9.9  21.9   4.8   0.7   2.4
 7 E Germany        8.4  11.6   3.7  11.1   5.4  24.6   6.5   0.8   3.6
 8 Finland          9.5   4.9   2.7  33.7   5.8  26.3   5.1   1     1.4
 9 France          18     9.9   3.3  19.5   5.7  28.1   4.8   2.4   6.5
10 Greece          10.2   3     2.8  17.6   5.9  41.7   2.2   7.8   6.5
# ℹ 15 more rows
…
