7 Discriminant Analysis – Data Mining
…
titanic <- fread("../Titanic.csv")                                      # 데이터 불러오기

titanic %>%
  as_tibble

# A tibble: 891 × 11
   Survived Pclass Name                                                Sex      Age SibSp Parch Ticket            Fare Cabin  Embarked
      <int>  <int> <chr>                                               <chr>  <dbl> <int> <int> <chr>            <dbl> <chr>  <chr>   
 1        0      3 Braund, Mr. Owen Harris                             male      22     1     0 A/5 21171         7.25 ""     S       
 2        1      1 Cumings, Mrs. John Bradley (Florence Briggs Thayer) female    38     1     0 PC 17599         71.3  "C85"  C       
 3        1      3 Heikkinen, Miss. Laina                              female    26     0     0 STON/O2. 3101282  7.92 ""     S       
 4        1      1 Futrelle, Mrs. Jacques Heath (Lily May Peel)        female    35     1     0 113803           53.1  "C123" S       
 5        0      3 Allen, Mr. William Henry                            male      35     0     0 373450            8.05 ""     S       
 6        0      3 Moran, Mr. James                                    male      NA     0     0 330877            8.46 ""     Q       
 7        0      1 McCarthy, Mr. Timothy J                             male      54     0     0 17463            51.9  "E46"  S       
 8        0      3 Palsson, Master. Gosta Leonard                      male       2     3     1 349909           21.1  ""     S       
 9        1      3 Johnson, Mrs. Oscar W (Elisabeth Vilhelmina Berg)   female    27     0     2 347742           11.1  ""     S       
10        1      2 Nasser, Mrs. Nicholas (Adele Achem)                 female    14     1     0 237736           30.1  ""     C       
# ℹ 881 more rows
…
Result! 빨간색은 잘못 분류된 case를 의미하며, 직선형태로 분류 영역이 나뉘어져 있다는 것을 알 수 있다.

7.7.2 모형 평가

Caution! 모형 평가를 위해 Test Dataset에 대한 예측 class/확률이 필요하며, 함수 predict()를 이용하여 생성한다.

# 예측 class와 예측 확률 생성
titanic.lda.pred <- predict(titanic.lda, 
                            newdata = titanic.ted.Imp[,-1])   # Test Dataset including Only 예측 변수   

titanic.lda.pred %>%                                       
  as_tibble

# A tibble: 266 × 3
   class posterior[,"no"] [,"yes"] x[,"LD1"]
   <fct>            <dbl>    <dbl>     <dbl>
 1 no               0.554    0.446    0.464 
 2 no               0.670    0.330   -0.282 
 3 no               0.625    0.375    0.0172
 4 no               0.771    0.229   -1.05  
 5 no               0.624    0.376    0.0239
 6 no               0.683    0.317   -0.373 
 7 no               0.598    0.402    0.192 
 8 no               0.810    0.190   -1.40  
 9 no               0.680    0.320   -0.348 
10 no               0.521    0.479    0.664 
# ℹ 256 more rows
…
Result! 빨간색은 잘못 분류된 case를 의미한다. 선형판별분석에서 살펴본 그림과 달리 곡선형태로 분류 영역이 나뉘어져 있다는 것을 알 수 있다.

7.8.2 모형 평가

Caution! 모형 평가를 위해 Test Dataset에 대한 예측 class/확률이 필요하며, 함수 predict()를 이용하여 생성한다.

# 예측 class와 예측 확률 생성
titanic.qda.pred <- predict(titanic.qda, 
                            newdata = titanic.ted.Imp[,-1])   # Test Dataset including Only 예측 변수   

titanic.qda.pred %>%                                       
  as_tibble

# A tibble: 266 × 2
   class posterior[,"no"]  [,"yes"]
   <fct>            <dbl>     <dbl>
 1 yes              0.446 0.554    
 2 no               0.569 0.431    
 3 no               0.715 0.285    
 4 no               0.710 0.290    
 5 no               0.981 0.0186   
 6 no               0.751 0.249    
 7 no               0.688 0.312    
 8 no               1.00  0.0000362
 9 no               0.746 0.254    
10 no               0.631 0.369    
# ℹ 256 more rows
…
