2 Naive Bayes Classification – Data Mining
…
2.1 데이터 불러오기

pacman::p_load("data.table",
               "dplyr",  "tidyr", "magrittr",
               "ggplot2",
               "e1071",                                         # For naiveBayes
               "caret")                                         # For confusionMatrix    
                                              
delays.df <- fread("../FlightDelays.csv")                       # 데이터 불러오기

delays.df %>%
  as_tibble

# A tibble: 2,201 × 13
   CRS_DEP_TIME CARRIER DEP_TIME DEST  DISTANCE FL_DATE    FL_NUM ORIGIN Weather DAY_WEEK DAY_OF_MONTH TAIL_NUM `Flight Status`
          <int> <chr>      <int> <chr>    <int> <chr>       <int> <chr>    <int>    <int>        <int> <chr>    <chr>          
 1         1455 OH          1455 JFK        184 01/01/2004   5935 BWI          0        4            1 N940CA   ontime         
 2         1640 DH          1640 JFK        213 01/01/2004   6155 DCA          0        4            1 N405FJ   ontime         
 3         1245 DH          1245 LGA        229 01/01/2004   7208 IAD          0        4            1 N695BR   ontime         
 4         1715 DH          1709 LGA        229 01/01/2004   7215 IAD          0        4            1 N662BR   ontime         
 5         1039 DH          1035 LGA        229 01/01/2004   7792 IAD          0        4            1 N698BR   ontime         
 6          840 DH           839 JFK        228 01/01/2004   7800 IAD          0        4            1 N687BR   ontime         
 7         1240 DH          1243 JFK        228 01/01/2004   7806 IAD          0        4            1 N321UE   ontime         
 8         1645 DH          1644 JFK        228 01/01/2004   7810 IAD          0        4            1 N301UE   ontime         
 9         1715 DH          1710 JFK        228 01/01/2004   7812 IAD          0        4            1 N328UE   ontime         
10         2120 DH          2129 JFK        228 01/01/2004   7814 IAD          0        4            1 N685BR   ontime         
# ℹ 2,191 more rows
…
# 2. Convert to Factor
selected.var <- c("CRS_DEP_TIME", "CARRIER", "DEST",                    # 범주형 변수 선택
                  "ORIGIN", "DAY_WEEK", "Flight.Status")

delays.df %<>%
  mutate_at(selected.var, as.factor)                                    # 범주형으로 변환

# 3. Select Variables used for Analysis
delays.df1 <- delays.df %>%
  select(selected.var)                                                  # 분석에 사용할 변수만 선택

delays.df1 %>%
  as_tibble

# A tibble: 2,201 × 6
   CRS_DEP_TIME CARRIER DEST  ORIGIN DAY_WEEK Flight.Status
   <fct>        <fct>   <fct> <fct>  <fct>    <fct>        
 1 14           OH      JFK   BWI    4        ontime       
 2 16           DH      JFK   DCA    4        ontime       
 3 12           DH      LGA   IAD    4        ontime       
 4 17           DH      LGA   IAD    4        ontime       
 5 10           DH      LGA   IAD    4        ontime       
 6 8            DH      JFK   IAD    4        ontime       
 7 12           DH      JFK   IAD    4        ontime       
 8 16           DH      JFK   IAD    4        ontime       
 9 17           DH      JFK   IAD    4        ontime       
10 21           DH      JFK   IAD    4        ontime       
# ℹ 2,191 more rows
…
2.3 데이터 탐색

# 데이터 구조 변환
visual.df <- pivot_longer(delays.df1,
                          cols = -Flight.Status,          # Target 제외
                          names_to = "Variables",         # 변수 이름이 입력될 새로운 열 이름
                          values_to = "values"            # 변수에 입력된 값에 대한 새로운 열 이름
                          )

visual.df

# A tibble: 11,005 × 3
   Flight.Status Variables    values
   <fct>         <chr>        <fct> 
 1 ontime        CRS_DEP_TIME 14    
 2 ontime        CARRIER      OH    
 3 ontime        DEST         JFK   
 4 ontime        ORIGIN       BWI   
 5 ontime        DAY_WEEK     4     
 6 ontime        CRS_DEP_TIME 16    
 7 ontime        CARRIER      DH    
 8 ontime        DEST         JFK   
 9 ontime        ORIGIN       DCA   
10 ontime        DAY_WEEK     4     
# ℹ 10,995 more rows
…
# 예측 확률( 사후확률 P(Y|X) ) 생성
pred.prob  <- predict(delays.nb, 
                      newdata = delays.ted[,-6],         # 함수 predict에서는 Target 제외
                      type = "raw")                      
 
# Test Dataset의 실제값과 예측 결과
df <- data.frame(actual = delays.ted$Flight.Status, 
                 pred.class = pred.class, pred.prob)
df %>%
  as_tibble

# A tibble: 659 × 4
   actual pred.class delayed ontime
   <fct>  <fct>        <dbl>  <dbl>
 1 ontime ontime      0.303   0.697
 2 ontime ontime      0.302   0.698
 3 ontime ontime      0.0325  0.967
 4 ontime ontime      0.122   0.878
 5 ontime ontime      0.0702  0.930
 6 ontime ontime      0.162   0.838
 7 ontime ontime      0.0690  0.931
 8 ontime ontime      0.0969  0.903
 9 ontime ontime      0.187   0.813
10 ontime ontime      0.241   0.759
# ℹ 649 more rows
…
       'Positive' Class : delayed         

2.6.2 ROC 곡선

# 예측 확률( 사후확률 P(Y|X) ) 
pred.prob %>%
  as_tibble

# A tibble: 659 × 2
   delayed ontime
     <dbl>  <dbl>
 1  0.303   0.697
 2  0.302   0.698
 3  0.0325  0.967
 4  0.122   0.878
 5  0.0702  0.930
 6  0.162   0.838
 7  0.0690  0.931
 8  0.0969  0.903
 9  0.187   0.813
10  0.241   0.759
# ℹ 649 more rows
…
