9 Principal Component Analysis – Data Mining
…
Bottom : 하단 여백 너비

Top : 상단 여백 너비

Diagonal : 대각선 길이

9.4.1 데이터 불러오기

# 데이터 불러오기
data(banknote, package = "mclust")

swissTib <- as_tibble(banknote)
swissTib

# A tibble: 200 × 7
   Status  Length  Left Right Bottom   Top Diagonal
   <fct>    <dbl> <dbl> <dbl>  <dbl> <dbl>    <dbl>
 1 genuine   215.  131   131.    9     9.7     141 
 2 genuine   215.  130.  130.    8.1   9.5     142.
 3 genuine   215.  130.  130.    8.7   9.6     142.
 4 genuine   215.  130.  130.    7.5  10.4     142 
 5 genuine   215   130.  130.   10.4   7.7     142.
 6 genuine   216.  131.  130.    9    10.1     141.
 7 genuine   216.  130.  130.    7.9   9.6     142.
 8 genuine   214.  130.  129.    7.2  10.7     142.
 9 genuine   215.  129.  130.    8.2  11       142.
10 genuine   215.  130.  130.    9.2  10       141.
# ℹ 190 more rows
…
