14 Random Forest – Data Mining
…
14.1 데이터 불러오기

pacman::p_load("data.table", 
               "tidyverse", 
               "dplyr", "tidyr",
               "ggplot2", "GGally",
               "caret",
               "randomForest")                                          # For randomForest

titanic <- fread("../Titanic.csv")                                      # 데이터 불러오기

titanic %>%
  as_tibble

# A tibble: 891 × 11
   Survived Pclass Name                                                Sex      Age SibSp Parch Ticket            Fare Cabin  Embarked
      <int>  <int> <chr>                                               <chr>  <dbl> <int> <int> <chr>            <dbl> <chr>  <chr>   
 1        0      3 Braund, Mr. Owen Harris                             male      22     1     0 A/5 21171         7.25 ""     S       
 2        1      1 Cumings, Mrs. John Bradley (Florence Briggs Thayer) female    38     1     0 PC 17599         71.3  "C85"  C       
 3        1      3 Heikkinen, Miss. Laina                              female    26     0     0 STON/O2. 3101282  7.92 ""     S       
 4        1      1 Futrelle, Mrs. Jacques Heath (Lily May Peel)        female    35     1     0 113803           53.1  "C123" S       
 5        0      3 Allen, Mr. William Henry                            male      35     0     0 373450            8.05 ""     S       
 6        0      3 Moran, Mr. James                                    male      NA     0     0 330877            8.46 ""     Q       
 7        0      1 McCarthy, Mr. Timothy J                             male      54     0     0 17463            51.9  "E46"  S       
 8        0      3 Palsson, Master. Gosta Leonard                      male       2     3     1 349909           21.1  ""     S       
 9        1      3 Johnson, Mrs. Oscar W (Elisabeth Vilhelmina Berg)   female    27     0     2 347742           11.1  ""     S       
10        1      2 Nasser, Mrs. Nicholas (Adele Achem)                 female    14     1     0 237736           30.1  ""     C       
# ℹ 881 more rows
…
Caution! Original Dataset으로부터 Bootstrap Dataset을 생성할 때 추출되지 않은 Data Point를 Out of Bag (OBB) Sample이라고 부른다. OBB Sample을 이용하여 Random Forest가 얼마나 잘 구축되었는지 검증할 수 있는데, 이때 계산된 오차를 OBB 오차라고 한다.

14.7 모형 평가

Caution! 모형 평가를 위해 Test Dataset에 대한 예측 class/확률 이 필요하며, 함수 predict()를 이용하여 생성한다.

# 예측 class 생성 
test.rf.class <- predict(titanic.rf,
                         newdata = titanic.ted.Imp[,-1], # Test Dataset including Only 예측 변수   
                         type = "class")                 # 예측 class 생성       

test.rf.class %>%
  as_tibble

# A tibble: 266 × 1
   value
   <fct>
 1 yes  
 2 no   
 3 no   
 4 yes  
 5 no   
 6 no   
 7 yes  
 8 no   
 9 no   
10 no   
# ℹ 256 more rows
…
       'Positive' Class : yes             

14.7.2 ROC 곡선

# 예측 확률 생성
test.rf.prob <- predict(titanic.rf, 
                        newdata = titanic.ted.Imp[,-1], # Test Dataset including Only 예측 변수  
                        type = "prob")                  # 예측 확률 생성     

test.rf.prob %>%
  as_tibble

# A tibble: 266 × 2
   no       yes     
   <matrix> <matrix>
 1 0.00     1.00    
 2 0.72     0.28    
 3 0.96     0.04    
 4 0.45     0.55    
 5 0.68     0.32    
 6 0.99     0.01    
 7 0.49     0.51    
 8 1.00     0.00    
 9 1.00     0.00    
10 0.59     0.41    
# ℹ 256 more rows
…
