4 Support Vector Machine with Linear Kernel – Data Mining
…
4.1 데이터 불러오기

pacman::p_load("data.table", "dplyr", "tidyr",
               "caret",
               "ggplot2", "GGally",
               "e1071")

titanic <- fread("../Titanic.csv")                                      # 데이터 불러오기

titanic %>%
  as_tibble

# A tibble: 891 × 11
   Survived Pclass Name                                                Sex      Age SibSp Parch Ticket            Fare Cabin  Embarked
      <int>  <int> <chr>                                               <chr>  <dbl> <int> <int> <chr>            <dbl> <chr>  <chr>   
 1        0      3 Braund, Mr. Owen Harris                             male      22     1     0 A/5 21171         7.25 ""     S       
 2        1      1 Cumings, Mrs. John Bradley (Florence Briggs Thayer) female    38     1     0 PC 17599         71.3  "C85"  C       
 3        1      3 Heikkinen, Miss. Laina                              female    26     0     0 STON/O2. 3101282  7.92 ""     S       
 4        1      1 Futrelle, Mrs. Jacques Heath (Lily May Peel)        female    35     1     0 113803           53.1  "C123" S       
 5        0      3 Allen, Mr. William Henry                            male      35     0     0 373450            8.05 ""     S       
 6        0      3 Moran, Mr. James                                    male      NA     0     0 330877            8.46 ""     Q       
 7        0      1 McCarthy, Mr. Timothy J                             male      54     0     0 17463            51.9  "E46"  S       
 8        0      3 Palsson, Master. Gosta Leonard                      male       2     3     1 349909           21.1  ""     S       
 9        1      3 Johnson, Mrs. Oscar W (Elisabeth Vilhelmina Berg)   female    27     0     2 347742           11.1  ""     S       
10        1      2 Nasser, Mrs. Nicholas (Adele Achem)                 female    14     1     0 237736           30.1  ""     C       
# ℹ 881 more rows
…
# Combine Target with 변환된 예측 변수
titanic.df <- data.frame(Survived = titanic1$Survived, 
                         titanic.Var)

titanic.df %>%
  as_tibble

# A tibble: 891 × 9
   Survived Pclass.1 Pclass.2 Pclass.3 Sex.female Sex.male   Age  Fare FamSize
   <fct>       <dbl>    <dbl>    <dbl>      <dbl>    <dbl> <dbl> <dbl>   <dbl>
 1 no              0        0        1          0        1    22  7.25       1
 2 yes             1        0        0          1        0    38 71.3        1
 3 yes             0        0        1          1        0    26  7.92       0
 4 yes             1        0        0          1        0    35 53.1        1
 5 no              0        0        1          0        1    35  8.05       0
 6 no              0        0        1          0        1    NA  8.46       0
 7 no              1        0        0          0        1    54 51.9        0
 8 no              0        0        1          0        1     2 21.1        4
 9 yes             0        0        1          1        0    27 11.1        2
10 yes             0        1        0          1        0    14 30.1        1
# ℹ 881 more rows
…
4.7 모형 평가

Caution! 모형 평가를 위해 Test Dataset에 대한 예측 class/확률 이 필요하며, 함수 predict()를 이용하여 생성한다.

# 예측 class 생성 
svm.li.pred <- predict(svm.model.li,
                       newdata = titanic.ted.Imp[,-1],  # Test Dataset including Only 예측 변수   
                       type = "class")                  # 예측 class 생성       

svm.li.pred %>%
  as_tibble

# A tibble: 266 × 1
   value
   <fct>
 1 yes  
 2 no   
 3 no   
 4 yes  
 5 no   
 6 no   
 7 yes  
 8 no   
 9 no   
10 yes  
# ℹ 256 more rows
…
       'Positive' Class : yes            

4.7.2 ROC 곡선

# 예측 확률 생성
test.svm.prob <- predict(svm.model.li, 
                         newdata = titanic.ted.Imp[,-1],    # Test Dataset including Only 예측 변수  
                         probability = TRUE)                # 예측 확률 생성       

attr(test.svm.prob, "probabilities") %>%
  as_tibble

# A tibble: 266 × 2
      no    yes
   <dbl>  <dbl>
 1 0.227 0.773 
 2 0.785 0.215 
 3 0.807 0.193 
 4 0.288 0.712 
 5 0.921 0.0794
 6 0.799 0.201 
 7 0.242 0.758 
 8 0.648 0.352 
 9 0.825 0.175 
10 0.303 0.697 
# ℹ 256 more rows
…
