17 XGBoost – Data Mining
…
pacman::p_load("data.table", 
               "tidyverse", 
               "dplyr", "tidyr",
               "ggplot2", "GGally",
               "caret",
               "Matrix",                                                # For sparse.model.matrix
               "xgboost")                                               # For xgb.train

titanic <- fread("../Titanic.csv")                                      # 데이터 불러오기

titanic %>%
  as_tibble

# A tibble: 891 × 11
   Survived Pclass Name                                                Sex      Age SibSp Parch Ticket            Fare Cabin  Embarked
      <int>  <int> <chr>                                               <chr>  <dbl> <int> <int> <chr>            <dbl> <chr>  <chr>   
 1        0      3 Braund, Mr. Owen Harris                             male      22     1     0 A/5 21171         7.25 ""     S       
 2        1      1 Cumings, Mrs. John Bradley (Florence Briggs Thayer) female    38     1     0 PC 17599         71.3  "C85"  C       
 3        1      3 Heikkinen, Miss. Laina                              female    26     0     0 STON/O2. 3101282  7.92 ""     S       
 4        1      1 Futrelle, Mrs. Jacques Heath (Lily May Peel)        female    35     1     0 113803           53.1  "C123" S       
 5        0      3 Allen, Mr. William Henry                            male      35     0     0 373450            8.05 ""     S       
 6        0      3 Moran, Mr. James                                    male      NA     0     0 330877            8.46 ""     Q       
 7        0      1 McCarthy, Mr. Timothy J                             male      54     0     0 17463            51.9  "E46"  S       
 8        0      3 Palsson, Master. Gosta Leonard                      male       2     3     1 349909           21.1  ""     S       
 9        1      3 Johnson, Mrs. Oscar W (Elisabeth Vilhelmina Berg)   female    27     0     2 347742           11.1  ""     S       
10        1      2 Nasser, Mrs. Nicholas (Adele Achem)                 female    14     1     0 237736           30.1  ""     C       
# ℹ 881 more rows
…
Result! 변수 Sexmale이 Target Survived을 분류하는 데 있어 중요하다.

17.7 모형 평가

Caution! 모형 평가를 위해 Test Dataset에 대한 예측 class/확률 이 필요하며, 함수 predict()를 이용하여 생성한다.

# "Survived = 1"에 대한 예측 확률 생성
test.xgb.prob <- predict(titanic.xgb,
                         newdata = test_matrix)        # Test Dataset including Only 예측 변수

test.xgb.prob %>%
  as_tibble

# A tibble: 266 × 1
   value
   <dbl>
 1 0.676
 2 0.442
 3 0.342
 4 0.653
 5 0.420
 6 0.342
 7 0.497
 8 0.331
 9 0.342
10 0.636
# ℹ 256 more rows

17.7.1 ConfusionMatrix

# 예측 class 생성
cv <- 0.5                                                          # Cutoff Value
test.xgb.class <- as.factor(ifelse(test.xgb.prob > cv, "1", "0"))  # 예측 확률 > cv이면 "Survived = 1" 아니면 "Survived = 0"

test.xgb.class %>%
  as_tibble

# A tibble: 266 × 1
   value
   <fct>
 1 1    
 2 0    
 3 0    
 4 1    
 5 0    
 6 0    
 7 0    
 8 0    
 9 0    
10 1    
# ℹ 256 more rows
…
